{
 pages: [
  {
   elements: [
    {
     isRequired: true,
     type: "checkbox",
     choices: [
      {
       value: "1",
       text: "manual sex (receiving)"
      },
      {
       value: "2",
       text: "manual sex (giving)"
      },
      {
       value: "3",
       text: "ejaculating on"
      },
      {
       value: "4",
       text: "being ejaculated on"
      },
      {
       value: "5",
       text: "using sex toys"
      },
      {
       value: "6",
       text: "oral sex (receiving)"
      },
      {
       value: "7",
       text: "oral sex (giving)"
      },
      {
       value: "8",
       text: "anal intercourse (receiving)"
      },
      {
       value: "9",
       text: "anal intercourse (giving)"
      },
      {
       value: "10",
       text: "vaginal intercourse (receiving)"
      },
      {
       value: "11",
       text: "vaginal intercourse (giving)"
      }
     ],
     name: "genitals",
     title: "Genital and sexual acts mean different things to different people.  What do you define as sex?"
    },
    { type: "checkbox", name: "act-rank", renderAs: "sortablejs", title: "Of these acts please rank them from sexually most pleasurable to least pleasurable (not required)", colCount: 0,
        choices: ["manual sex (receiving)", "manual sex (giving)", "ejaculating on",
         "being ejaculated on", "using sex toys", "oral sex (receiving)", "oral sex (giving)",
         "anal intercourse (receiving)", "anal intercourse (giving)", "vaginal intercourse (receiving)",
         "vaginal intercourse (giving)"] },
    {
     type: "radiogroup",
     isRequired: true,
     choices: [
      {
       value: "1",
       text: "hourly"
      },
      {
       value: "2",
       text: "daily"
      },
      {
       value: "3",
       text: "weekly"
      },
      {
       value: "4",
       text: "monthly"
      },
      {
       value: "5",
       text: "never"
      }
     ],
     name: "time-units",
     title: "What unit of time is the most accurate measure of how often you think about sex?"
    },
    {
     type: "radiogroup",
     choices: [
      {
       value: "1",
       text: "1-2"
      },
      {
       value: "2",
       text: "3-4"
      },
      {
       value: "3",
       text: "5-6"
      },
      {
       value: "4",
       text: "7+"
      }
     ],
     name: "time-frequency",
     title: "How many times do you you think about sex per unit of time defined above."
    },
    {
     type: "rating",
     isRequired: true,
     maxRateDescription: "Wide-ranging definition of sexual encounter.",
     minRateDescription: "Limited to genital interaction",
     name: "boundaries",
     title: "According to Sedgwick, “the nimbus of ‘the sexual’ scarcely [extends] beyond the boundaries of discreet genital acts; to others, it enfolds them loosely or floats virtually free of them”, what is “the nimbus of ‘the sexual’” to you?"
    },
    {
     type: "rating",
     isRequired: true,
     maxRateDescription: "100%",
     minRateDescription: "0%",
     name: "fantasy",
     title: "What percentage of that time is spent fantasizing?"
    },
    {
     type: "rating",
     isRequired: true,
     maxRateDescription: "Entirely dependent upon",
     minRateDescription: "Not at all",
     name: "relevant",
     title: "How relevant is your sexual identity to your overall identity?"
    },
    {
     type: "rating",
     isRequired: true,
     maxRateDescription: "Lots",
     minRateDescription: "None",
     name: "quantity",
     title: "How much sex do you like to have"
    },
    {
     type: "rating",
     isRequired: true,
     maxRateDescription: "Lots",
     minRateDescription: "None",
     name: "emotions",
     title: "How much emotional investment do you need to have sex with a person/people"
    },
    {
     type: "rating",
     isRequired: true,
     maxRateDescription: "I'm flex",
     minRateDescription: "Same sitch every time",
     name: "role",
     title: "How strict and clearly defined is your perception of your role in a sexual encounter"
    },
    {
     type: "radiogroup",
     isRequired: true,
     choices: [
      {
       value: "1",
       text: "Yes"
      },
      {
       value: "2",
       text: "No"
      }
     ],
     name: "aversion",
     title: "Do you avoid sex unless you are sure it will be good?"
    },
    {
     type: "rating",
     isRequired: true,
     maxRateDescription: "Anyone but me",
     minRateDescription: "Ain't no lover like myself",
     name: "autoerotic",
     title: "How important is self pleasure to your sexual identity?\n"
    },
    {
     type: "rating",
     isRequired: true,
     maxRateDescription: "The erotic extends far beyond genital stimulation",
     minRateDescription: "Self pleasure is masturbation",
     name: "self-scale",
     title: "To what degree outside of a genital interaction does your concept of self-pleasure extend?"
    },
    {
     type: "radiogroup",
     isRequired: true,
     choices: [
      {
       value: "1",
       text: "heterosexual"
      },
      {
       value: "2",
       text: "homosexual"
      },
      {
       value: "3",
       text: "bisexual"
      },
      {
       value: "4",
       text: "asexual"
      },
      {
       value: "5",
       text: "pansexual"
      },
      {
       value: "6",
       text: "demisexual"
      }
     ],
     name: "orientation",
     title: "What is your sexual orientation?"
    }
   ],
   name: "page1"
  }
 ]
}